<?xml version="1.0" encoding="UTF-8" standalone="no"?>
<!DOCTYPE svg PUBLIC "-//W3C//DTD SVG 1.1//EN"
 "http://www.w3.org/Graphics/SVG/1.1/DTD/svg11.dtd">
<!-- Generated by graphviz version 2.38.0 (20140413.2041)
 -->
<!-- Title: controllers_diagram Pages: 1 -->
<svg width="1627pt" height="1792pt"
 viewBox="0.00 0.00 1626.78 1791.84" xmlns="http://www.w3.org/2000/svg" xmlns:xlink="http://www.w3.org/1999/xlink">
<g id="graph0" class="graph" transform="scale(1 1) rotate(0) translate(789.582 870.737)">
<title>controllers_diagram</title>
<polygon fill="none" stroke="none" points="-789.582,921.108 -789.582,-870.737 837.203,-870.737 837.203,921.108 -789.582,921.108"/>
<!-- _diagram_info -->
<g id="node1" class="node"><title>_diagram_info</title>
<text text-anchor="start" x="401" y="-63.6" font-family="Times,serif" font-size="13.00">Controllers diagram</text>
<text text-anchor="start" x="401" y="-49.6" font-family="Times,serif" font-size="13.00">Date: Dec 10 2017 &#45; 20:52</text>
<text text-anchor="start" x="401" y="-35.6" font-family="Times,serif" font-size="13.00">Migration version: 20171210195526</text>
<text text-anchor="start" x="401" y="-21.6" font-family="Times,serif" font-size="13.00">Generated by RailRoady 1.5.3</text>
<text text-anchor="start" x="401" y="-7.6" font-family="Times,serif" font-size="13.00">http://railroady.prestonlee.com</text>
</g>
<!-- RegistrationscontrollerController -->
<g id="node2" class="node"><title>RegistrationscontrollerController</title>
<path fill="none" stroke="black" d="M-773.582,916.608C-773.582,916.608 -601.582,916.608 -601.582,916.608 -595.582,916.608 -589.582,910.608 -589.582,904.608 -589.582,904.608 -589.582,804.608 -589.582,804.608 -589.582,798.608 -595.582,792.608 -601.582,792.608 -601.582,792.608 -773.582,792.608 -773.582,792.608 -779.582,792.608 -785.582,798.608 -785.582,804.608 -785.582,804.608 -785.582,904.608 -785.582,904.608 -785.582,910.608 -779.582,916.608 -773.582,916.608"/>
<text text-anchor="middle" x="-687.582" y="807.808" font-family="Times,serif" font-size="14.00">RegistrationscontrollerController</text>
<polyline fill="none" stroke="black" points="-785.582,815.608 -589.582,815.608 "/>
<polyline fill="none" stroke="black" points="-785.582,839.608 -589.582,839.608 "/>
<polyline fill="none" stroke="black" points="-785.582,863.608 -589.582,863.608 "/>
<text text-anchor="start" x="-777.582" y="878.808" font-family="Times,serif" font-size="14.00">_layout</text>
<text text-anchor="start" x="-777.582" y="893.808" font-family="Times,serif" font-size="14.00">account_update_params</text>
<text text-anchor="start" x="-777.582" y="908.808" font-family="Times,serif" font-size="14.00">sign_up_params</text>
</g>
<!-- ApplicationController -->
<g id="node3" class="node"><title>ApplicationController</title>
<path fill="none" stroke="black" d="M242.182,-262.249C242.182,-262.249 354.182,-262.249 354.182,-262.249 360.182,-262.249 366.182,-268.249 366.182,-274.249 366.182,-274.249 366.182,-344.249 366.182,-344.249 366.182,-350.249 360.182,-356.249 354.182,-356.249 354.182,-356.249 242.182,-356.249 242.182,-356.249 236.182,-356.249 230.182,-350.249 230.182,-344.249 230.182,-344.249 230.182,-274.249 230.182,-274.249 230.182,-268.249 236.182,-262.249 242.182,-262.249"/>
<text text-anchor="middle" x="298.182" y="-341.049" font-family="Times,serif" font-size="14.00">ApplicationController</text>
<polyline fill="none" stroke="black" points="230.182,-333.249 366.182,-333.249 "/>
<polyline fill="none" stroke="black" points="230.182,-309.249 366.182,-309.249 "/>
<polyline fill="none" stroke="black" points="230.182,-285.249 366.182,-285.249 "/>
<text text-anchor="start" x="238.182" y="-270.049" font-family="Times,serif" font-size="14.00">_layout</text>
</g>
<!-- HomeController -->
<g id="node4" class="node"><title>HomeController</title>
<path fill="none" stroke="black" d="M739.203,-78.6451C739.203,-78.6451 821.203,-78.6451 821.203,-78.6451 827.203,-78.6451 833.203,-84.6451 833.203,-90.6451 833.203,-90.6451 833.203,-159.645 833.203,-159.645 833.203,-165.645 827.203,-171.645 821.203,-171.645 821.203,-171.645 739.203,-171.645 739.203,-171.645 733.203,-171.645 727.203,-165.645 727.203,-159.645 727.203,-159.645 727.203,-90.6451 727.203,-90.6451 727.203,-84.6451 733.203,-78.6451 739.203,-78.6451"/>
<text text-anchor="middle" x="780.203" y="-156.445" font-family="Times,serif" font-size="14.00">HomeController</text>
<polyline fill="none" stroke="black" points="727.203,-148.645 833.203,-148.645 "/>
<text text-anchor="start" x="735.203" y="-133.445" font-family="Times,serif" font-size="14.00">index</text>
<polyline fill="none" stroke="black" points="727.203,-125.645 833.203,-125.645 "/>
<polyline fill="none" stroke="black" points="727.203,-101.645 833.203,-101.645 "/>
<text text-anchor="start" x="735.203" y="-86.4451" font-family="Times,serif" font-size="14.00">_layout</text>
</g>
<!-- ApplicationController&#45;&gt;HomeController -->
<g id="edge2" class="edge"><title>ApplicationController&#45;&gt;HomeController</title>
<path fill="none" stroke="black" d="M366.222,-283.262C463.149,-246.241 638.964,-179.09 726.991,-145.469"/>
</g>
<!-- HelpController -->
<g id="node5" class="node"><title>HelpController</title>
<path fill="none" stroke="black" d="M192.481,-773.237C192.481,-773.237 266.481,-773.237 266.481,-773.237 272.481,-773.237 278.481,-779.237 278.481,-785.237 278.481,-785.237 278.481,-854.237 278.481,-854.237 278.481,-860.237 272.481,-866.237 266.481,-866.237 266.481,-866.237 192.481,-866.237 192.481,-866.237 186.481,-866.237 180.481,-860.237 180.481,-854.237 180.481,-854.237 180.481,-785.237 180.481,-785.237 180.481,-779.237 186.481,-773.237 192.481,-773.237"/>
<text text-anchor="middle" x="229.481" y="-851.037" font-family="Times,serif" font-size="14.00">HelpController</text>
<polyline fill="none" stroke="black" points="180.481,-843.237 278.481,-843.237 "/>
<text text-anchor="start" x="188.481" y="-828.037" font-family="Times,serif" font-size="14.00">index</text>
<polyline fill="none" stroke="black" points="180.481,-820.237 278.481,-820.237 "/>
<polyline fill="none" stroke="black" points="180.481,-796.237 278.481,-796.237 "/>
<text text-anchor="start" x="188.481" y="-781.037" font-family="Times,serif" font-size="14.00">_layout</text>
</g>
<!-- ApplicationController&#45;&gt;HelpController -->
<g id="edge3" class="edge"><title>ApplicationController&#45;&gt;HelpController</title>
<path fill="none" stroke="black" d="M291.842,-356.359C278.738,-453.733 248.805,-676.151 235.756,-773.109"/>
</g>
<!-- LivrosController -->
<g id="node6" class="node"><title>LivrosController</title>
<path fill="none" stroke="black" d="M630.817,-497.951C630.817,-497.951 713.817,-497.951 713.817,-497.951 719.817,-497.951 725.817,-503.951 725.817,-509.951 725.817,-509.951 725.817,-698.951 725.817,-698.951 725.817,-704.951 719.817,-710.951 713.817,-710.951 713.817,-710.951 630.817,-710.951 630.817,-710.951 624.817,-710.951 618.817,-704.951 618.817,-698.951 618.817,-698.951 618.817,-509.951 618.817,-509.951 618.817,-503.951 624.817,-497.951 630.817,-497.951"/>
<text text-anchor="middle" x="672.317" y="-695.751" font-family="Times,serif" font-size="14.00">LivrosController</text>
<polyline fill="none" stroke="black" points="618.817,-687.951 725.817,-687.951 "/>
<text text-anchor="start" x="626.817" y="-672.751" font-family="Times,serif" font-size="14.00">create</text>
<text text-anchor="start" x="626.817" y="-657.751" font-family="Times,serif" font-size="14.00">destroy</text>
<text text-anchor="start" x="626.817" y="-642.751" font-family="Times,serif" font-size="14.00">edit</text>
<text text-anchor="start" x="626.817" y="-627.751" font-family="Times,serif" font-size="14.00">index</text>
<text text-anchor="start" x="626.817" y="-612.751" font-family="Times,serif" font-size="14.00">new</text>
<text text-anchor="start" x="626.817" y="-597.751" font-family="Times,serif" font-size="14.00">show</text>
<text text-anchor="start" x="626.817" y="-582.751" font-family="Times,serif" font-size="14.00">update</text>
<polyline fill="none" stroke="black" points="618.817,-574.951 725.817,-574.951 "/>
<polyline fill="none" stroke="black" points="618.817,-550.951 725.817,-550.951 "/>
<text text-anchor="start" x="626.817" y="-535.751" font-family="Times,serif" font-size="14.00">_layout</text>
<text text-anchor="start" x="626.817" y="-520.751" font-family="Times,serif" font-size="14.00">livro_params</text>
<text text-anchor="start" x="626.817" y="-505.751" font-family="Times,serif" font-size="14.00">set_livro</text>
</g>
<!-- ApplicationController&#45;&gt;LivrosController -->
<g id="edge4" class="edge"><title>ApplicationController&#45;&gt;LivrosController</title>
<path fill="none" stroke="black" d="M357.879,-356.351C429.776,-413.08 549.478,-507.528 618.596,-562.064"/>
</g>
<!-- DeviseController -->
<g id="node13" class="node"><title>DeviseController</title>
<path fill="none" stroke="black" d="M-217.19,222.759C-217.19,222.759 -50.19,222.759 -50.19,222.759 -44.19,222.759 -38.19,216.759 -38.19,210.759 -38.19,210.759 -38.19,-157.241 -38.19,-157.241 -38.19,-163.241 -44.19,-169.241 -50.19,-169.241 -50.19,-169.241 -217.19,-169.241 -217.19,-169.241 -223.19,-169.241 -229.19,-163.241 -229.19,-157.241 -229.19,-157.241 -229.19,210.759 -229.19,210.759 -229.19,216.759 -223.19,222.759 -217.19,222.759"/>
<text text-anchor="middle" x="-133.69" y="-154.041" font-family="Times,serif" font-size="14.00">DeviseController</text>
<polyline fill="none" stroke="black" points="-229.19,-146.241 -38.19,-146.241 "/>
<text text-anchor="start" x="-221.19" y="-131.041" font-family="Times,serif" font-size="14.00">_prefixes</text>
<polyline fill="none" stroke="black" points="-229.19,-123.241 -38.19,-123.241 "/>
<text text-anchor="start" x="-221.19" y="-108.041" font-family="Times,serif" font-size="14.00">assert_is_devise_resource!</text>
<text text-anchor="start" x="-221.19" y="-93.0409" font-family="Times,serif" font-size="14.00">clean_up_passwords</text>
<text text-anchor="start" x="-221.19" y="-78.0409" font-family="Times,serif" font-size="14.00">devise_i18n_options</text>
<text text-anchor="start" x="-221.19" y="-63.0409" font-family="Times,serif" font-size="14.00">devise_mapping</text>
<text text-anchor="start" x="-221.19" y="-48.0409" font-family="Times,serif" font-size="14.00">find_message</text>
<text text-anchor="start" x="-221.19" y="-33.0409" font-family="Times,serif" font-size="14.00">navigational_formats</text>
<text text-anchor="start" x="-221.19" y="-18.0409" font-family="Times,serif" font-size="14.00">require_no_authentication</text>
<text text-anchor="start" x="-221.19" y="-3.04095" font-family="Times,serif" font-size="14.00">resource</text>
<text text-anchor="start" x="-221.19" y="11.9591" font-family="Times,serif" font-size="14.00">resource=</text>
<text text-anchor="start" x="-221.19" y="26.9591" font-family="Times,serif" font-size="14.00">resource_class</text>
<text text-anchor="start" x="-221.19" y="41.9591" font-family="Times,serif" font-size="14.00">resource_name</text>
<text text-anchor="start" x="-221.19" y="56.9591" font-family="Times,serif" font-size="14.00">resource_params</text>
<text text-anchor="start" x="-221.19" y="71.9591" font-family="Times,serif" font-size="14.00">respond_with_navigational</text>
<text text-anchor="start" x="-221.19" y="86.9591" font-family="Times,serif" font-size="14.00">scope_name</text>
<text text-anchor="start" x="-221.19" y="101.959" font-family="Times,serif" font-size="14.00">set_flash_message</text>
<text text-anchor="start" x="-221.19" y="116.959" font-family="Times,serif" font-size="14.00">set_flash_message!</text>
<text text-anchor="start" x="-221.19" y="131.959" font-family="Times,serif" font-size="14.00">set_minimum_password_length</text>
<text text-anchor="start" x="-221.19" y="146.959" font-family="Times,serif" font-size="14.00">signed_in_resource</text>
<text text-anchor="start" x="-221.19" y="161.959" font-family="Times,serif" font-size="14.00">successfully_sent?</text>
<text text-anchor="start" x="-221.19" y="176.959" font-family="Times,serif" font-size="14.00">translation_scope</text>
<text text-anchor="start" x="-221.19" y="191.959" font-family="Times,serif" font-size="14.00">unknown_action!</text>
<polyline fill="none" stroke="black" points="-229.19,199.759 -38.19,199.759 "/>
<text text-anchor="start" x="-221.19" y="214.959" font-family="Times,serif" font-size="14.00">_layout</text>
</g>
<!-- ApplicationController&#45;&gt;DeviseController -->
<g id="edge11" class="edge"><title>ApplicationController&#45;&gt;DeviseController</title>
<path fill="none" stroke="black" d="M237.677,-262.175C166.177,-206.546 46.3113,-113.287 -37.8562,-47.8022"/>
</g>
<!-- Devise::OmniauthCallbacksController -->
<g id="node7" class="node"><title>Devise::OmniauthCallbacksController</title>
<path fill="none" stroke="black" d="M-390.134,-346.478C-390.134,-346.478 -189.134,-346.478 -189.134,-346.478 -183.134,-346.478 -177.134,-352.478 -177.134,-358.478 -177.134,-358.478 -177.134,-486.478 -177.134,-486.478 -177.134,-492.478 -183.134,-498.478 -189.134,-498.478 -189.134,-498.478 -390.134,-498.478 -390.134,-498.478 -396.134,-498.478 -402.134,-492.478 -402.134,-486.478 -402.134,-486.478 -402.134,-358.478 -402.134,-358.478 -402.134,-352.478 -396.134,-346.478 -390.134,-346.478"/>
<text text-anchor="middle" x="-289.634" y="-483.278" font-family="Times,serif" font-size="14.00">Devise::OmniauthCallbacksController</text>
<polyline fill="none" stroke="black" points="-402.134,-475.478 -177.134,-475.478 "/>
<text text-anchor="start" x="-394.134" y="-460.278" font-family="Times,serif" font-size="14.00">failure</text>
<text text-anchor="start" x="-394.134" y="-445.278" font-family="Times,serif" font-size="14.00">passthru</text>
<polyline fill="none" stroke="black" points="-402.134,-437.478 -177.134,-437.478 "/>
<text text-anchor="start" x="-394.134" y="-422.278" font-family="Times,serif" font-size="14.00">after_omniauth_failure_path_for</text>
<text text-anchor="start" x="-394.134" y="-407.278" font-family="Times,serif" font-size="14.00">failed_strategy</text>
<text text-anchor="start" x="-394.134" y="-392.278" font-family="Times,serif" font-size="14.00">failure_message</text>
<text text-anchor="start" x="-394.134" y="-377.278" font-family="Times,serif" font-size="14.00">translation_scope</text>
<polyline fill="none" stroke="black" points="-402.134,-369.478 -177.134,-369.478 "/>
<text text-anchor="start" x="-394.134" y="-354.278" font-family="Times,serif" font-size="14.00">_layout</text>
</g>
<!-- Devise::UnlocksController -->
<g id="node8" class="node"><title>Devise::UnlocksController</title>
<path fill="none" stroke="black" d="M-726.424,161.121C-726.424,161.121 -494.424,161.121 -494.424,161.121 -488.424,161.121 -482.424,155.121 -482.424,149.121 -482.424,149.121 -482.424,21.1211 -482.424,21.1211 -482.424,15.1211 -488.424,9.12112 -494.424,9.12112 -494.424,9.12112 -726.424,9.12112 -726.424,9.12112 -732.424,9.12112 -738.424,15.1211 -738.424,21.1211 -738.424,21.1211 -738.424,149.121 -738.424,149.121 -738.424,155.121 -732.424,161.121 -726.424,161.121"/>
<text text-anchor="middle" x="-610.424" y="24.3211" font-family="Times,serif" font-size="14.00">Devise::UnlocksController</text>
<polyline fill="none" stroke="black" points="-738.424,32.1211 -482.424,32.1211 "/>
<text text-anchor="start" x="-730.424" y="47.3211" font-family="Times,serif" font-size="14.00">create</text>
<text text-anchor="start" x="-730.424" y="62.3211" font-family="Times,serif" font-size="14.00">new</text>
<text text-anchor="start" x="-730.424" y="77.3211" font-family="Times,serif" font-size="14.00">show</text>
<polyline fill="none" stroke="black" points="-738.424,85.1211 -482.424,85.1211 "/>
<text text-anchor="start" x="-730.424" y="100.321" font-family="Times,serif" font-size="14.00">after_sending_unlock_instructions_path_for</text>
<text text-anchor="start" x="-730.424" y="115.321" font-family="Times,serif" font-size="14.00">after_unlock_path_for</text>
<text text-anchor="start" x="-730.424" y="130.321" font-family="Times,serif" font-size="14.00">translation_scope</text>
<polyline fill="none" stroke="black" points="-738.424,138.121 -482.424,138.121 "/>
<text text-anchor="start" x="-730.424" y="153.321" font-family="Times,serif" font-size="14.00">_layout</text>
</g>
<!-- Devise::PasswordsController -->
<g id="node9" class="node"><title>Devise::PasswordsController</title>
<path fill="none" stroke="black" d="M131.358,382.015C131.358,382.015 409.358,382.015 409.358,382.015 415.358,382.015 421.358,376.015 421.358,370.015 421.358,370.015 421.358,197.015 421.358,197.015 421.358,191.015 415.358,185.015 409.358,185.015 409.358,185.015 131.358,185.015 131.358,185.015 125.358,185.015 119.358,191.015 119.358,197.015 119.358,197.015 119.358,370.015 119.358,370.015 119.358,376.015 125.358,382.015 131.358,382.015"/>
<text text-anchor="middle" x="270.358" y="200.215" font-family="Times,serif" font-size="14.00">Devise::PasswordsController</text>
<polyline fill="none" stroke="black" points="119.358,208.015 421.358,208.015 "/>
<text text-anchor="start" x="127.358" y="223.215" font-family="Times,serif" font-size="14.00">create</text>
<text text-anchor="start" x="127.358" y="238.215" font-family="Times,serif" font-size="14.00">edit</text>
<text text-anchor="start" x="127.358" y="253.215" font-family="Times,serif" font-size="14.00">new</text>
<text text-anchor="start" x="127.358" y="268.215" font-family="Times,serif" font-size="14.00">update</text>
<polyline fill="none" stroke="black" points="119.358,276.015 421.358,276.015 "/>
<text text-anchor="start" x="127.358" y="291.215" font-family="Times,serif" font-size="14.00">after_resetting_password_path_for</text>
<text text-anchor="start" x="127.358" y="306.215" font-family="Times,serif" font-size="14.00">after_sending_reset_password_instructions_path_for</text>
<text text-anchor="start" x="127.358" y="321.215" font-family="Times,serif" font-size="14.00">assert_reset_token_passed</text>
<text text-anchor="start" x="127.358" y="336.215" font-family="Times,serif" font-size="14.00">translation_scope</text>
<text text-anchor="start" x="127.358" y="351.215" font-family="Times,serif" font-size="14.00">unlockable?</text>
<polyline fill="none" stroke="black" points="119.358,359.015 421.358,359.015 "/>
<text text-anchor="start" x="127.358" y="374.215" font-family="Times,serif" font-size="14.00">_layout</text>
</g>
<!-- Devise::ConfirmationsController -->
<g id="node10" class="node"><title>Devise::ConfirmationsController</title>
<path fill="none" stroke="black" d="M-713.569,-178.501C-713.569,-178.501 -437.569,-178.501 -437.569,-178.501 -431.569,-178.501 -425.569,-184.501 -425.569,-190.501 -425.569,-190.501 -425.569,-318.501 -425.569,-318.501 -425.569,-324.501 -431.569,-330.501 -437.569,-330.501 -437.569,-330.501 -713.569,-330.501 -713.569,-330.501 -719.569,-330.501 -725.569,-324.501 -725.569,-318.501 -725.569,-318.501 -725.569,-190.501 -725.569,-190.501 -725.569,-184.501 -719.569,-178.501 -713.569,-178.501"/>
<text text-anchor="middle" x="-575.569" y="-315.301" font-family="Times,serif" font-size="14.00">Devise::ConfirmationsController</text>
<polyline fill="none" stroke="black" points="-725.569,-307.501 -425.569,-307.501 "/>
<text text-anchor="start" x="-717.569" y="-292.301" font-family="Times,serif" font-size="14.00">create</text>
<text text-anchor="start" x="-717.569" y="-277.301" font-family="Times,serif" font-size="14.00">new</text>
<text text-anchor="start" x="-717.569" y="-262.301" font-family="Times,serif" font-size="14.00">show</text>
<polyline fill="none" stroke="black" points="-725.569,-254.501 -425.569,-254.501 "/>
<text text-anchor="start" x="-717.569" y="-239.301" font-family="Times,serif" font-size="14.00">after_confirmation_path_for</text>
<text text-anchor="start" x="-717.569" y="-224.301" font-family="Times,serif" font-size="14.00">after_resending_confirmation_instructions_path_for</text>
<text text-anchor="start" x="-717.569" y="-209.301" font-family="Times,serif" font-size="14.00">translation_scope</text>
<polyline fill="none" stroke="black" points="-725.569,-201.501 -425.569,-201.501 "/>
<text text-anchor="start" x="-717.569" y="-186.301" font-family="Times,serif" font-size="14.00">_layout</text>
</g>
<!-- Devise::RegistrationsController -->
<g id="node11" class="node"><title>Devise::RegistrationsController</title>
<path fill="none" stroke="black" d="M-489.542,635.022C-489.542,635.022 -320.542,635.022 -320.542,635.022 -314.542,635.022 -308.542,629.022 -308.542,623.022 -308.542,623.022 -308.542,330.022 -308.542,330.022 -308.542,324.022 -314.542,318.022 -320.542,318.022 -320.542,318.022 -489.542,318.022 -489.542,318.022 -495.542,318.022 -501.542,324.022 -501.542,330.022 -501.542,330.022 -501.542,623.022 -501.542,623.022 -501.542,629.022 -495.542,635.022 -489.542,635.022"/>
<text text-anchor="middle" x="-405.042" y="333.222" font-family="Times,serif" font-size="14.00">Devise::RegistrationsController</text>
<polyline fill="none" stroke="black" points="-501.542,341.022 -308.542,341.022 "/>
<text text-anchor="start" x="-493.542" y="356.222" font-family="Times,serif" font-size="14.00">cancel</text>
<text text-anchor="start" x="-493.542" y="371.222" font-family="Times,serif" font-size="14.00">create</text>
<text text-anchor="start" x="-493.542" y="386.222" font-family="Times,serif" font-size="14.00">destroy</text>
<text text-anchor="start" x="-493.542" y="401.222" font-family="Times,serif" font-size="14.00">edit</text>
<text text-anchor="start" x="-493.542" y="416.222" font-family="Times,serif" font-size="14.00">new</text>
<text text-anchor="start" x="-493.542" y="431.222" font-family="Times,serif" font-size="14.00">update</text>
<polyline fill="none" stroke="black" points="-501.542,439.022 -308.542,439.022 "/>
<text text-anchor="start" x="-493.542" y="454.222" font-family="Times,serif" font-size="14.00">account_update_params</text>
<text text-anchor="start" x="-493.542" y="469.222" font-family="Times,serif" font-size="14.00">after_inactive_sign_up_path_for</text>
<text text-anchor="start" x="-493.542" y="484.222" font-family="Times,serif" font-size="14.00">after_sign_up_path_for</text>
<text text-anchor="start" x="-493.542" y="499.222" font-family="Times,serif" font-size="14.00">after_update_path_for</text>
<text text-anchor="start" x="-493.542" y="514.222" font-family="Times,serif" font-size="14.00">authenticate_scope!</text>
<text text-anchor="start" x="-493.542" y="529.222" font-family="Times,serif" font-size="14.00">build_resource</text>
<text text-anchor="start" x="-493.542" y="544.222" font-family="Times,serif" font-size="14.00">sign_up</text>
<text text-anchor="start" x="-493.542" y="559.222" font-family="Times,serif" font-size="14.00">sign_up_params</text>
<text text-anchor="start" x="-493.542" y="574.222" font-family="Times,serif" font-size="14.00">translation_scope</text>
<text text-anchor="start" x="-493.542" y="589.222" font-family="Times,serif" font-size="14.00">update_needs_confirmation?</text>
<text text-anchor="start" x="-493.542" y="604.222" font-family="Times,serif" font-size="14.00">update_resource</text>
<polyline fill="none" stroke="black" points="-501.542,612.022 -308.542,612.022 "/>
<text text-anchor="start" x="-493.542" y="627.222" font-family="Times,serif" font-size="14.00">_layout</text>
</g>
<!-- Devise::RegistrationsController&#45;&gt;RegistrationscontrollerController -->
<g id="edge1" class="edge"><title>Devise::RegistrationsController&#45;&gt;RegistrationscontrollerController</title>
<path fill="none" stroke="black" d="M-501.683,605.844C-548.826,668.928 -603.357,741.901 -641.113,792.425"/>
</g>
<!-- Devise::SessionsController -->
<g id="node12" class="node"><title>Devise::SessionsController</title>
<path fill="none" stroke="black" d="M-38.6,603.036C-38.6,603.036 101.4,603.036 101.4,603.036 107.4,603.036 113.4,597.036 113.4,591.036 113.4,591.036 113.4,403.036 113.4,403.036 113.4,397.036 107.4,391.036 101.4,391.036 101.4,391.036 -38.6,391.036 -38.6,391.036 -44.6,391.036 -50.6,397.036 -50.6,403.036 -50.6,403.036 -50.6,591.036 -50.6,591.036 -50.6,597.036 -44.6,603.036 -38.6,603.036"/>
<text text-anchor="middle" x="31.4" y="406.236" font-family="Times,serif" font-size="14.00">Devise::SessionsController</text>
<polyline fill="none" stroke="black" points="-50.6,414.036 113.4,414.036 "/>
<text text-anchor="start" x="-42.6" y="429.236" font-family="Times,serif" font-size="14.00">create</text>
<text text-anchor="start" x="-42.6" y="444.236" font-family="Times,serif" font-size="14.00">destroy</text>
<text text-anchor="start" x="-42.6" y="459.236" font-family="Times,serif" font-size="14.00">new</text>
<polyline fill="none" stroke="black" points="-50.6,467.036 113.4,467.036 "/>
<text text-anchor="start" x="-42.6" y="482.236" font-family="Times,serif" font-size="14.00">auth_options</text>
<text text-anchor="start" x="-42.6" y="497.236" font-family="Times,serif" font-size="14.00">serialize_options</text>
<text text-anchor="start" x="-42.6" y="512.236" font-family="Times,serif" font-size="14.00">sign_in_params</text>
<text text-anchor="start" x="-42.6" y="527.236" font-family="Times,serif" font-size="14.00">translation_scope</text>
<polyline fill="none" stroke="black" points="-50.6,535.036 113.4,535.036 "/>
<text text-anchor="start" x="-42.6" y="550.236" font-family="Times,serif" font-size="14.00">_layout</text>
<text text-anchor="start" x="-42.6" y="565.236" font-family="Times,serif" font-size="14.00">all_signed_out?</text>
<text text-anchor="start" x="-42.6" y="580.236" font-family="Times,serif" font-size="14.00">respond_to_on_destroy</text>
<text text-anchor="start" x="-42.6" y="595.236" font-family="Times,serif" font-size="14.00">verify_signed_out_user</text>
</g>
<!-- DeviseController&#45;&gt;Devise::OmniauthCallbacksController -->
<g id="edge5" class="edge"><title>DeviseController&#45;&gt;Devise::OmniauthCallbacksController</title>
<path fill="none" stroke="black" d="M-201.749,-169.302C-223.484,-231.915 -246.263,-297.536 -263.183,-346.278"/>
</g>
<!-- DeviseController&#45;&gt;Devise::UnlocksController -->
<g id="edge6" class="edge"><title>DeviseController&#45;&gt;Devise::UnlocksController</title>
<path fill="none" stroke="black" d="M-229.304,38.4642C-301.879,47.3488 -402.404,59.6552 -481.992,69.3985"/>
</g>
<!-- DeviseController&#45;&gt;Devise::PasswordsController -->
<g id="edge7" class="edge"><title>DeviseController&#45;&gt;Devise::PasswordsController</title>
<path fill="none" stroke="black" d="M-37.9364,87.6066C8.96976,117.414 66.5608,154.01 119.218,187.472"/>
</g>
<!-- DeviseController&#45;&gt;Devise::ConfirmationsController -->
<g id="edge8" class="edge"><title>DeviseController&#45;&gt;Devise::ConfirmationsController</title>
<path fill="none" stroke="black" d="M-229.299,-34.0971C-295.787,-76.4173 -384.901,-133.14 -456.075,-178.443"/>
</g>
<!-- DeviseController&#45;&gt;Devise::RegistrationsController -->
<g id="edge9" class="edge"><title>DeviseController&#45;&gt;Devise::RegistrationsController</title>
<path fill="none" stroke="black" d="M-229.359,185.329C-255.298,228.323 -283.38,274.869 -309.323,317.868"/>
</g>
<!-- DeviseController&#45;&gt;Devise::SessionsController -->
<g id="edge10" class="edge"><title>DeviseController&#45;&gt;Devise::SessionsController</title>
<path fill="none" stroke="black" d="M-64.8724,222.794C-44.6561,280.382 -23.3094,341.19 -5.86794,390.874"/>
</g>
</g>
</svg>
