<?xml version="1.0" encoding="UTF-8" standalone="no"?>
<!DOCTYPE svg PUBLIC "-//W3C//DTD SVG 1.1//EN"
 "http://www.w3.org/Graphics/SVG/1.1/DTD/svg11.dtd">
<!-- Generated by graphviz version 2.38.0 (20140413.2041)
 -->
<!-- Title: controllers_diagram Pages: 1 -->
<svg width="1001pt" height="952pt"
 viewBox="0.00 0.00 1000.67 952.46" xmlns="http://www.w3.org/2000/svg" xmlns:xlink="http://www.w3.org/1999/xlink">
<g id="graph0" class="graph" transform="scale(1 1) rotate(0) translate(536.465 492.663)">
<title>controllers_diagram</title>
<polygon fill="none" stroke="none" points="-536.465,459.798 -536.465,-492.663 464.204,-492.663 464.204,459.798 -536.465,459.798"/>
<!-- _diagram_info -->
<g id="node1" class="node"><title>_diagram_info</title>
<text text-anchor="start" x="236" y="316.4" font-family="Times,serif" font-size="13.00">Controllers diagram</text>
<text text-anchor="start" x="236" y="330.4" font-family="Times,serif" font-size="13.00">Date: Dec 10 2017 &#45; 20:52</text>
<text text-anchor="start" x="236" y="344.4" font-family="Times,serif" font-size="13.00">Migration version: 20171210195526</text>
<text text-anchor="start" x="236" y="358.4" font-family="Times,serif" font-size="13.00">Generated by RailRoady 1.5.3</text>
<text text-anchor="start" x="236" y="372.4" font-family="Times,serif" font-size="13.00">http://railroady.prestonlee.com</text>
</g>
<!-- RegistrationscontrollerController -->
<g id="node2" class="node"><title>RegistrationscontrollerController</title>
<ellipse fill="none" stroke="black" cx="-405.076" cy="437.798" rx="127.277" ry="18"/>
<text text-anchor="middle" x="-405.076" y="441.498" font-family="Times,serif" font-size="14.00">RegistrationscontrollerController</text>
</g>
<!-- ApplicationController -->
<g id="node3" class="node"><title>ApplicationController</title>
<ellipse fill="none" stroke="black" cx="129.777" cy="-193.684" rx="88.2844" ry="18"/>
<text text-anchor="middle" x="129.777" y="-189.984" font-family="Times,serif" font-size="14.00">ApplicationController</text>
</g>
<!-- HomeController -->
<g id="node4" class="node"><title>HomeController</title>
<ellipse fill="none" stroke="black" cx="391.31" cy="-93.7939" rx="68.7879" ry="18"/>
<text text-anchor="middle" x="391.31" y="-90.0939" font-family="Times,serif" font-size="14.00">HomeController</text>
</g>
<!-- ApplicationController&#45;&gt;HomeController -->
<g id="edge2" class="edge"><title>ApplicationController&#45;&gt;HomeController</title>
<path fill="none" stroke="black" d="M171.507,-177.746C221.261,-158.743 303.764,-127.231 352.291,-108.697"/>
</g>
<!-- HelpController -->
<g id="node5" class="node"><title>HelpController</title>
<ellipse fill="none" stroke="black" cx="92.5015" cy="-470.663" rx="63.8893" ry="18"/>
<text text-anchor="middle" x="92.5015" y="-466.963" font-family="Times,serif" font-size="14.00">HelpController</text>
</g>
<!-- ApplicationController&#45;&gt;HelpController -->
<g id="edge3" class="edge"><title>ApplicationController&#45;&gt;HelpController</title>
<path fill="none" stroke="black" d="M127.331,-211.858C120.577,-262.045 101.721,-402.156 94.9562,-452.423"/>
</g>
<!-- LivrosController -->
<g id="node6" class="node"><title>LivrosController</title>
<ellipse fill="none" stroke="black" cx="332.774" cy="-353.854" rx="69.5877" ry="18"/>
<text text-anchor="middle" x="332.774" y="-350.154" font-family="Times,serif" font-size="14.00">LivrosController</text>
</g>
<!-- ApplicationController&#45;&gt;LivrosController -->
<g id="edge4" class="edge"><title>ApplicationController&#45;&gt;LivrosController</title>
<path fill="none" stroke="black" d="M151.888,-211.13C191.039,-242.021 272.087,-305.971 310.998,-336.672"/>
</g>
<!-- DeviseController -->
<g id="node13" class="node"><title>DeviseController</title>
<ellipse fill="none" stroke="black" cx="-104.547" cy="-11.3741" rx="71.4873" ry="18"/>
<text text-anchor="middle" x="-104.547" y="-7.67414" font-family="Times,serif" font-size="14.00">DeviseController</text>
</g>
<!-- ApplicationController&#45;&gt;DeviseController -->
<g id="edge11" class="edge"><title>ApplicationController&#45;&gt;DeviseController</title>
<path fill="none" stroke="black" d="M107.309,-176.204C62.4056,-141.268 -37.9256,-63.2074 -82.4892,-28.5357"/>
</g>
<!-- Devise::OmniauthCallbacksController -->
<g id="node7" class="node"><title>Devise::OmniauthCallbacksController</title>
<ellipse fill="none" stroke="black" cx="-189.159" cy="-255.12" rx="146.474" ry="18"/>
<text text-anchor="middle" x="-189.159" y="-251.42" font-family="Times,serif" font-size="14.00">Devise::OmniauthCallbacksController</text>
</g>
<!-- Devise::UnlocksController -->
<g id="node8" class="node"><title>Devise::UnlocksController</title>
<ellipse fill="none" stroke="black" cx="-363.212" cy="20.2918" rx="105.082" ry="18"/>
<text text-anchor="middle" x="-363.212" y="23.9918" font-family="Times,serif" font-size="14.00">Devise::UnlocksController</text>
</g>
<!-- Devise::PasswordsController -->
<g id="node9" class="node"><title>Devise::PasswordsController</title>
<ellipse fill="none" stroke="black" cx="114.68" cy="127.936" rx="113.18" ry="18"/>
<text text-anchor="middle" x="114.68" y="131.636" font-family="Times,serif" font-size="14.00">Devise::PasswordsController</text>
</g>
<!-- Devise::ConfirmationsController -->
<g id="node10" class="node"><title>Devise::ConfirmationsController</title>
<ellipse fill="none" stroke="black" cx="-344.3" cy="-163.98" rx="127.277" ry="18"/>
<text text-anchor="middle" x="-344.3" y="-160.28" font-family="Times,serif" font-size="14.00">Devise::ConfirmationsController</text>
</g>
<!-- Devise::RegistrationsController -->
<g id="node11" class="node"><title>Devise::RegistrationsController</title>
<ellipse fill="none" stroke="black" cx="-251.776" cy="232.657" rx="122.379" ry="18"/>
<text text-anchor="middle" x="-251.776" y="236.357" font-family="Times,serif" font-size="14.00">Devise::RegistrationsController</text>
</g>
<!-- Devise::RegistrationsController&#45;&gt;RegistrationscontrollerController -->
<g id="edge1" class="edge"><title>Devise::RegistrationsController&#45;&gt;RegistrationscontrollerController</title>
<path fill="none" stroke="black" d="M-265.381,250.862C-294.472,289.791 -362.438,380.741 -391.502,419.633"/>
</g>
<!-- Devise::SessionsController -->
<g id="node12" class="node"><title>Devise::SessionsController</title>
<ellipse fill="none" stroke="black" cx="-14.9729" cy="243.787" rx="106.681" ry="18"/>
<text text-anchor="middle" x="-14.9729" y="247.487" font-family="Times,serif" font-size="14.00">Devise::SessionsController</text>
</g>
<!-- DeviseController&#45;&gt;Devise::OmniauthCallbacksController -->
<g id="edge5" class="edge"><title>DeviseController&#45;&gt;Devise::OmniauthCallbacksController</title>
<path fill="none" stroke="black" d="M-110.907,-29.6947C-126.626,-74.9769 -167.166,-191.763 -182.841,-236.919"/>
</g>
<!-- DeviseController&#45;&gt;Devise::UnlocksController -->
<g id="edge6" class="edge"><title>DeviseController&#45;&gt;Devise::UnlocksController</title>
<path fill="none" stroke="black" d="M-169.152,-3.46518C-201.922,0.54664 -242.163,5.47297 -277.488,9.79748"/>
</g>
<!-- DeviseController&#45;&gt;Devise::PasswordsController -->
<g id="edge7" class="edge"><title>DeviseController&#45;&gt;Devise::PasswordsController</title>
<path fill="none" stroke="black" d="M-78.1031,5.42988C-36.3083,31.9888 44.6213,83.4162 87.1082,110.415"/>
</g>
<!-- DeviseController&#45;&gt;Devise::ConfirmationsController -->
<g id="edge8" class="edge"><title>DeviseController&#45;&gt;Devise::ConfirmationsController</title>
<path fill="none" stroke="black" d="M-131.121,-28.2887C-176.841,-57.3898 -269.946,-116.653 -316.499,-146.284"/>
</g>
<!-- DeviseController&#45;&gt;Devise::RegistrationsController -->
<g id="edge9" class="edge"><title>DeviseController&#45;&gt;Devise::RegistrationsController</title>
<path fill="none" stroke="black" d="M-115.373,6.57003C-142.6,51.6988 -213.69,169.529 -240.934,214.686"/>
</g>
<!-- DeviseController&#45;&gt;Devise::SessionsController -->
<g id="edge10" class="edge"><title>DeviseController&#45;&gt;Devise::SessionsController</title>
<path fill="none" stroke="black" d="M-98.2483,6.56833C-81.8415,53.3047 -37.9167,178.429 -21.3845,225.523"/>
</g>
</g>
</svg>
